{
    "KPlugin": {
        "Description": "Manage your code snippets or download new ones",
        "Description[az]": "Kod fraqmentlərini idarə edin və yenilərini endirin",
        "Description[ca@valencia]": "Gestiona els retalls de codi o en baixa de nous",
        "Description[ca]": "Gestiona els retalls de codi o en baixa de nous",
        "Description[cs]": "Spravujte vaše ústřižky kódu nebo si stáhněte nové",
        "Description[de]": "Verwaltung Ihrer Textbausteine oder Herunterladen neuer Textbausteine",
        "Description[el]": "Διαχείριση αποσπασμάτων κώδικα ή λήψη νέων",
        "Description[en_GB]": "Manage your code snippets or download new ones",
        "Description[es]": "Gestión de fragmentos de código y descarga de otros nuevos",
        "Description[eu]": "Kudeatu zure kodearen testu-zatiak edo berriak zama-jaitsi",
        "Description[fi]": "Hallitse koodikatkelmia ja lataa uusia",
        "Description[fr]": "Gérez vos fragments de code et téléchargez-en de nouveaux",
        "Description[ia]": "Gere tu fragmentos de codice o discarga alcu nove",
        "Description[it]": "Gestisce i tuoi frammenti di codice o ne scarica dei nuovi",
        "Description[ko]": "내 코드 스니펫을 관리하고 새로운 스니펫 다운로드",
        "Description[nl]": "Uw codefragmenten beheren of nieuwe downloaden",
        "Description[pl]": "Zarządzaj swoimi wycinkami kodu lub pobierz nowe",
        "Description[pt]": "Faça a gestão dos seus excertos de código ou transfira novos",
        "Description[sl]": "Upravljaj z delčki kode ali prenesi nove delčke",
        "Description[sv]": "Hantera kodsnuttar eller ladda ner nya",
        "Description[uk]": "Керування фрагментами вашого коду та отримання фрагментів коду інших",
        "Description[vi]": "Quản lí các mảnh mã của bạn hoặc tải về những mảnh mã mới",
        "Description[x-test]": "xxManage your code snippets or download new onesxx",
        "Description[zh_CN]": "管理您的代码片段或下载新代码片段",
        "Icon": "document-new",
        "Name": "Snippets Tool View",
        "Name[az]": "Fraqmentlər paneli",
        "Name[ca@valencia]": "Vista d'eina de retalls",
        "Name[ca]": "Vista d'eina de retalls",
        "Name[cs]": "Nástrojový pohled ústřižků",
        "Name[de]": "Werkzeugansicht für Textbausteine",
        "Name[el]": "Προβολή εργαλείου αποσπασμάτων",
        "Name[en_GB]": "Snippets Tool View",
        "Name[es]": "Vista de la herramienta de fragmentos",
        "Name[eu]": "Testu-zatien tresnaren ikuspegia",
        "Name[fi]": "Katkelmatyökalunäkymä",
        "Name[fr]": "Vue des outils de fragments de code",
        "Name[ia]": "Vista de instrumento de fragmentos",
        "Name[it]": "Vista dello strumento per i frammenti di testo",
        "Name[ko]": "스니펫 도구 보기",
        "Name[my]": "စာအတိုအထွာများ ကိရိယာမြင်ကွင်း",
        "Name[nl]": "Weergave van hulpmiddel voor fragmenten",
        "Name[pl]": "Widok narzędzia wycinków",
        "Name[pt]": "Área de Excertos",
        "Name[pt_BR]": "Exibição da ferramenta de trechos",
        "Name[sk]": "Zobrazenie nástroja Úryvky",
        "Name[sl]": "Pogled orodja delčkov besedil",
        "Name[sv]": "Verktygsvy för kodsnuttar",
        "Name[uk]": "Панель фрагментів",
        "Name[vi]": "Khung xem công cụ \"mảnh mã\"",
        "Name[x-test]": "xxSnippets Tool Viewxx",
        "Name[zh_CN]": "代码片段工具视图",
        "ServiceTypes": [
            "KTextEditor/Plugin",
            "KDevelop/Plugin"
        ]
    }
}
